…
### Questions

1.  How many aisles are there, and which aisles are the most items
    ordered from?

``` r
instacart %>% 
  select(aisle_id, aisle) %>% 
  distinct() 
```

    ## # A tibble: 134 × 2
    ##    aisle_id aisle                        
    ##       <int> <chr>                        
    ##  1      120 yogurt                       
    ##  2      108 other creams cheeses         
    ##  3       83 fresh vegetables             
    ##  4       95 canned meat seafood          
    ##  5       24 fresh fruits                 
    ##  6       21 packaged cheese              
    ##  7        2 specialty cheeses            
    ##  8      115 water seltzer sparkling water
    ##  9       53 cream                        
    ## 10      123 packaged vegetables fruits   
    ## # … with 124 more rows

``` r
# There are 134 distinct aisles.
instacart %>% 
  group_by(aisle) %>% 
  summarize(
    n_order = n()) %>% 
  arrange(desc(n_order))
```

    ## # A tibble: 134 × 2
    ##    aisle                         n_order
    ##    <chr>                           <int>
    ##  1 fresh vegetables               150609
    ##  2 fresh fruits                   150473
    ##  3 packaged vegetables fruits      78493
    ##  4 yogurt                          55240
    ##  5 packaged cheese                 41699
    ##  6 water seltzer sparkling water   36617
    ##  7 milk                            32644
    ##  8 chips pretzels                  31269
    ##  9 soy lactosefree                 26240
    ## 10 bread                           23635
    ## # … with 124 more rows
…
``` r
noaa %>% 
  group_by(snow) %>% 
  summarize(
    n_times_appear = n()) %>% 
    arrange(desc(n_times_appear))
```

    ## # A tibble: 282 × 2
    ##     snow n_times_appear
    ##    <int>          <int>
    ##  1     0        2008508
    ##  2    NA         381221
    ##  3    25          31022
    ##  4    13          23095
    ##  5    51          18274
    ##  6    76          10173
    ##  7     8           9962
    ##  8     5           9748
    ##  9    38           9197
    ## 10     3           8790
    ## # … with 272 more rows
…
